Chapter 7 Conclusion | TwitterAPI
…
Getting # followers

names <- c('BarackObama', 'justinbieber', 'ArianaGrande')
temp <- data.frame()
for (name in names){
  line <- get_timelines(name, n=20)
  temp <- rbind(line, temp)
}

followers_count <- temp$followers_count

temp

## # A tibble: 60 x 90
##    user_id  status_id           created_at          screen_name  text     source
##    <chr>    <chr>               <dttm>              <chr>        <chr>    <chr> 
##  1 34507480 1465479935712137217 2021-11-30 00:36:58 ArianaGrande "!!!!! ~ Twitt~
##  2 34507480 1465472555527991299 2021-11-30 00:07:39 ArianaGrande "one ho~ Twitt~
##  3 34507480 1465458087087656963 2021-11-29 23:10:09 ArianaGrande "https:~ Twitt~
##  4 34507480 1465456598982164480 2021-11-29 23:04:14 ArianaGrande "two ho~ Twitt~
##  5 34507480 1465447373258166272 2021-11-29 22:27:35 ArianaGrande "on my ~ Twitt~
##  6 34507480 1465443184461299717 2021-11-29 22:10:56 ArianaGrande "The #V~ Twitt~
##  7 34507480 1465417007197605888 2021-11-29 20:26:55 ArianaGrande "jimmy ~ Twitt~
##  8 34507480 1465388892660453376 2021-11-29 18:35:12 ArianaGrande "every ~ Twitt~
##  9 34507480 1465381395983790088 2021-11-29 18:05:24 ArianaGrande "foreve~ Twitt~
## 10 34507480 1465378351590219779 2021-11-29 17:53:19 ArianaGrande "@vcutg~ Twitt~
## # ... with 50 more rows, and 84 more variables: display_text_width <dbl>,
## #   reply_to_status_id <chr>, reply_to_user_id <chr>,
## #   reply_to_screen_name <chr>, is_quote <lgl>, is_retweet <lgl>,
## #   favorite_count <int>, retweet_count <int>, quote_count <int>,
## #   reply_count <int>, hashtags <list>, symbols <list>, urls_url <list>,
## #   urls_t.co <list>, urls_expanded_url <list>, media_url <list>,
## #   media_t.co <list>, media_expanded_url <list>, media_type <list>, ...
…
