Chapter 6 Interactive component | Twitter Sentiment Analysis
…
df_t <- df %>% select(created_at, group, sentiment_score)

times <- as.character(df_t$created_at)

dates <- c()

for (time in times){
  date <- strsplit(time, " +")[[1]][1]
  dates <- c(dates, date)
}

df_t$created_at <- dates
df_t

## # A tibble: 11,088 × 3
##    created_at group       sentiment_score
##    <chr>      <chr>                 <dbl>
##  1 2021-11-22 celebrities           1    
##  2 2021-11-22 celebrities           1    
##  3 2021-11-22 celebrities           1    
##  4 2021-11-13 celebrities           0.333
##  5 2021-10-15 celebrities           0.333
##  6 2021-10-07 celebrities           1    
##  7 2021-09-24 celebrities           0.333
##  8 2020-05-10 celebrities           0    
##  9 2021-11-19 celebrities           1    
## 10 2021-11-19 celebrities           0.6  
## # … with 11,078 more rows
…
